<?xml version="1.0" encoding="utf-8"?>
<!-- Generator: Adobe Illustrator 23.0.4, SVG Export Plug-In . SVG Version: 6.00 Build 0)  -->
<svg version="1.1" id="Layer_1" xmlns="http://www.w3.org/2000/svg" xmlns:xlink="http://www.w3.org/1999/xlink" x="0px" y="0px"
	 viewBox="0 0 1800 1200" style="enable-background:new 0 0 1800 1200;" xml:space="preserve">
<style type="text/css">
	.st0{fill:#6FB5C8;}
	.st1{fill:#FFFFFF;}
	.st2{fill:#274047;}
	.st3{fill:#019DBE;}
	.st4{opacity:0.15;}
</style>
<rect y="-1738.9" class="st0" width="1800" height="1200"/>
<rect y="-1338.9" class="st1" width="1800" height="400"/>
<path class="st2" d="M1130.8-988.9C1048-784.1,814.8-685.3,610-768.1s-303.7-316-220.8-520.8s316-303.7,520.8-220.8
	c100.5,40.6,180.2,120.3,220.8,220.8l-370.8,150L1130.8-988.9z"/>
<circle class="st3" cx="760" cy="-1138.9" r="200"/>
<rect id="Rectangle_1762" x="2412.7" y="-585" class="st3" width="1080" height="1170"/>
<g>
	<rect x="512.1" y="282.6" class="st1" width="197.2" height="69.7"/>
</g>
<g>
	<rect x="1015.4" y="282.6" class="st1" width="197.2" height="69.7"/>
</g>
<g>
	<rect x="1551.7" y="282.6" class="st1" width="197.2" height="69.7"/>
</g>
<g>
	<rect x="1551.7" y="559.7" class="st1" width="197.2" height="69.7"/>
</g>
<g>
	<rect x="1079.1" y="333.7" class="st1" width="69.7" height="557.5"/>
</g>
<g>
	<rect x="1551.7" y="333.7" class="st1" width="69.7" height="557.5"/>
</g>
<g>
	<rect x="512.1" y="559.7" class="st1" width="197.2" height="69.7"/>
</g>
<g>
	<rect x="512.1" y="821.5" class="st1" width="197.2" height="69.7"/>
</g>
<g>
	<polygon class="st1" points="1244.5,891.2 1298.9,891.2 1355,586.5 1423,891.2 1485.9,891.2 1356.7,252 	"/>
</g>
<g>
	<polygon class="st1" points="430.2,282.6 312.9,923.5 243,580.1 182,923.5 51,282.6 120.7,282.6 181.4,607.3 243,260.5 311,606.5 
		363.9,282.6 	"/>
</g>
<g>
	<g class="st4">
		<path d="M182,359.3"/>
	</g>
	<g>
		<path class="st1" d="M182,352.3"/>
	</g>
</g>
<g>
	<path class="st1" d="M953.2,246.5c0,0-99.5,96.9-99.5,186.2c0,92.7,113.4,135.2,113.4,296.7c0,110.5-161.5,177.4-161.5,177.4
		S909,861,909,718.2c0-97.5-116.9-173.4-116.9-280.7C792.1,352.3,953.2,246.5,953.2,246.5z"/>
</g>
</svg>
